
Room_31:
size 6 5
height 1
build Room_31 50 50
addRoom NORTH Door_32 RANDOM
onTop Room_33 1 1
displacement 0 -0.4 
roof 0 SLOPE 0.9 0.3

Room_33:
size 2 2
height 4
displacement 0 -0.9 -0.9 -0.4 -0.7 
roof 1 POINT 0.4





Door_32:
size 3 1
height 1
addWindow NORTH 0 1 DOOR
displacement 0 0 
roof 1 SLOPE 0.7 0.4 NORTH


