0 piano-studio-octave0

0 0 0
7 0.66 0
0 0 0
7 0.33 0
0 0 0
9 0.66 0
0 0 0
9 0.33 0
0 0 0
7 0.66 0
0 0 0
7 0.33 0
0 0 0
9 0.66 0
0 0 0
9 0.33 0
0 0 0
7 0.66 0
0 0 0
7 0.33 0
0 0 0
9 0.66 0
0 0 0
9 0.33 0
0 0 0
7 0.66 0
0 0 0
7 0.33 0
0 0 0
9 0.66 0
0 0 0
9 0.33 0
0 0 0
7 0.66 0
0 0 0
7 0.33 0
0 0 0
9 0.66 0
0 0 0
9 0.33 0
0 0 0
7 0.66 0
0 0 0
7 0.33 0
0 0 0
9 0.66 0
0 0 0
9 0.33 0
0 0 0
7 0.66 0
0 0 0
7 0.33 0
0 0 0
9 0.66 0
0 0 0
9 0.33 0
0 0 0
7 0.66 0
0 0 0
7 0.33 0
0 0 0
9 0.66 0
0 0 0
9 0.33 0
5 0 0
12 0.66 0
5 0 0
12 0.33 0
5 0 0
14 0.66 0
5 0 0
14 0.33 0
5 0 0
12 0.66 0
5 0 0
12 0.33 0
5 0 0
14 0.66 0
5 0 0
14 0.33 0
5 0 0
12 0.66 0
5 0 0
12 0.33 0
5 0 0
14 0.66 0
5 0 0
14 0.33 0
5 0 0
12 0.66 0
5 0 0
12 0.33 0
5 0 0
14 0.66 0
5 0 0
14 0.33 0
0 0 0
7 0.66 0
0 0 0
7 0.33 0
0 0 0
9 0.66 0
0 0 0
9 0.33 0
0 0 0
7 0.66 0
0 0 0
7 0.33 0
0 0 0
9 0.66 0
0 0 0
9 0.33 0
0 0 0
7 0.66 0
0 0 0
7 0.33 0
0 0 0
9 0.66 0
0 0 0
9 0.33 0
0 0 0
7 0.66 0
0 0 0
7 0.33 0
0 0 0
9 0.66 0
0 0 0
9 0.33 0
7 0 0
14 0.66 0
7 0 0
14 0.33 0
7 0 0
16 0.66 0
7 0 0
16 0.33 0
7 0 0
14 0.66 0
7 0 0
14 0.33 0
7 0 0
16 0.66 0
7 0 0
16 0.33 0
5 0 0
12 0.66 0
5 0 0
12 0.33 0
5 0 0
14 0.66 0
5 0 0
14 0.33 0
5 0 0
12 0.66 0
5 0 0
12 0.33 0
5 0 0
14 0.66 0
5 0 0
14 0.33 0
0 0 0
7 0.66 0
0 0 0
7 0.33 0
0 0 0
9 0.66 0
0 0 0
9 0.33 0
0 0 0
7 0.66 0
0 0 0
7 0.33 0
0 0 0
9 0.66 0
0 0 0
9 0.33 0
7 0 0
14 0.66 0
7 0 0
14 0.33 0
7 0 0
16 0.66 0
7 0 0
16 0.33 0
7 0 0
14 0.66 0
7 0 0
14 0.33 0
7 0 0
16 0.66 0
7 0 0
16 0.33 0

